{
    "key": "post_type_6632fda40d8bd",
    "title": "Services",
    "menu_order": 0,
    "active": true,
    "post_type": "service",
    "advanced_configuration": true,
    "import_source": "cptui",
    "import_date": 1714617764,
    "labels": {
        "name": "Services",
        "singular_name": "Service",
        "menu_name": "Services",
        "all_items": "All Services",
        "add_new": "Add new",
        "add_new_item": "Add new Service",
        "edit_item": "Edit Service",
        "new_item": "New Service",
        "view_item": "View Service",
        "view_items": "View Services",
        "search_items": "Search Services",
        "not_found": "No Services found",
        "not_found_in_trash": "No Services found in trash",
        "parent_item_colon": "Parent Service:",
        "archives": "Service archives",
        "attributes": "Services attributes",
        "featured_image": "Featured image for this Service",
        "set_featured_image": "Set featured image for this Service",
        "remove_featured_image": "Remove featured image for this Service",
        "use_featured_image": "Use as featured image for this Service",
        "insert_into_item": "Insert into Service",
        "uploaded_to_this_item": "Upload to this Service",
        "filter_items_list": "Filter Services list",
        "filter_by_date": "",
        "items_list_navigation": "Services list navigation",
        "items_list": "Services list",
        "item_published": "Service published",
        "item_published_privately": "Service published privately.",
        "item_reverted_to_draft": "Service reverted to draft.",
        "item_scheduled": "Service scheduled",
        "item_updated": "Service updated.",
        "item_link": "",
        "item_link_description": "",
        "parent": "Parent Service:",
        "name_admin_bar": "Service"
    },
    "description": "",
    "public": true,
    "hierarchical": true,
    "exclude_from_search": false,
    "publicly_queryable": true,
    "show_ui": true,
    "show_in_menu": true,
    "admin_menu_parent": "",
    "show_in_admin_bar": true,
    "show_in_nav_menus": true,
    "show_in_rest": true,
    "rest_base": "",
    "rest_namespace": "wp\/v2",
    "rest_controller_class": "",
    "menu_position": 23,
    "menu_icon": "dashicons-clipboard",
    "rename_capabilities": true,
    "singular_capability_name": "page",
    "plural_capability_name": "posts",
    "supports": [
        "title",
        "editor",
        "page-attributes"
    ],
    "taxonomies": [],
    "has_archive": true,
    "has_archive_slug": "",
    "rewrite": {
        "permalink_rewrite": "custom_permalink",
        "slug": "services",
        "feeds": false,
        "pages": true,
        "with_front": false
    },
    "query_var": "post_type_key",
    "query_var_name": "",
    "can_export": true,
    "delete_with_user": false,
    "register_meta_box_cb": "",
    "enter_title_here": "",
    "modified": 1714617764
}
