{
    "key": "post_type_6632fda417b69",
    "title": "Markets",
    "menu_order": 0,
    "active": true,
    "post_type": "market",
    "advanced_configuration": true,
    "import_source": "cptui",
    "import_date": 1714617764,
    "labels": {
        "name": "Markets",
        "singular_name": "Market",
        "menu_name": "Markets",
        "all_items": "All Markets",
        "add_new": "Add new",
        "add_new_item": "Add new Market",
        "edit_item": "Edit Market",
        "new_item": "New Market",
        "view_item": "View Market",
        "view_items": "View Markets",
        "search_items": "Search Markets",
        "not_found": "No Markets found",
        "not_found_in_trash": "No Markets found in trash",
        "parent_item_colon": "Parent Market:",
        "archives": "Market archives",
        "attributes": "Markets attributes",
        "featured_image": "Featured image for this Market",
        "set_featured_image": "Set featured image for this Market",
        "remove_featured_image": "Remove featured image for this Market",
        "use_featured_image": "Use as featured image for this Market",
        "insert_into_item": "Insert into Market",
        "uploaded_to_this_item": "Upload to this Market",
        "filter_items_list": "Filter Markets list",
        "filter_by_date": "",
        "items_list_navigation": "Markets list navigation",
        "items_list": "Markets list",
        "item_published": "Market published",
        "item_published_privately": "Market published privately.",
        "item_reverted_to_draft": "Market reverted to draft.",
        "item_scheduled": "Market scheduled",
        "item_updated": "Market updated.",
        "item_link": "",
        "item_link_description": "",
        "parent": "Parent Market:",
        "name_admin_bar": "Market"
    },
    "description": "",
    "public": true,
    "hierarchical": true,
    "exclude_from_search": false,
    "publicly_queryable": true,
    "show_ui": true,
    "show_in_menu": true,
    "admin_menu_parent": "",
    "show_in_admin_bar": true,
    "show_in_nav_menus": true,
    "show_in_rest": true,
    "rest_base": "",
    "rest_namespace": "wp\/v2",
    "rest_controller_class": "",
    "menu_position": "",
    "menu_icon": "dashicons-category",
    "rename_capabilities": true,
    "singular_capability_name": "page",
    "plural_capability_name": "posts",
    "supports": [
        "title",
        "thumbnail",
        "page-attributes"
    ],
    "taxonomies": [],
    "has_archive": true,
    "has_archive_slug": "",
    "rewrite": {
        "permalink_rewrite": "post_type_key",
        "slug": "",
        "feeds": false,
        "pages": true,
        "with_front": false
    },
    "query_var": "post_type_key",
    "query_var_name": "",
    "can_export": true,
    "delete_with_user": false,
    "register_meta_box_cb": "",
    "enter_title_here": "",
    "modified": 1714617764
}
